{
  "page": 1,
  "total_results": 10000,
  "total_pages": 500,
  "results": [
    {
      "popularity": 2699.389,
      "vote_count": 0,
      "video": false,
      "poster_path": "\/6CoRTJTmijhBLJTUNoVSUNxZMEI.jpg",
      "id": 694919,
      "adult": false,
      "backdrop_path": "\/9Y12EdkIVvYir3uTcZGjqfXWBUv.jpg",
      "original_language": "en",
      "original_title": "Money Plane",
      "genre_ids": [
        28
      ],
      "title": "Money Plane",
      "vote_average": 0,
      "overview": "A professional thief with $40 million in debt and his family's life on the line must commit one final heist - rob a futuristic airborne casino filled with the world's most dangerous criminals.",
      "release_date": "2020-09-29"
    },
    {
      "popularity": 1966.036,
      "vote_count": 1845,
      "video": false,
      "poster_path": "\/aKx1ARwG55zZ0GpRvU2WrGrCG9o.jpg",
      "id": 337401,
      "adult": false,
      "backdrop_path": "\/zzWGRw277MNoCs3zhyG3YmYQsXv.jpg",
      "original_language": "en",
      "original_title": "Mulan",
      "genre_ids": [
        28,
        12,
        18,
        14,
        10752
      ],
      "title": "Mulan",
      "vote_average": 7.5,
      "overview": "When the Emperor of China issues a decree that one man per family must serve in the Imperial Chinese Army to defend the country from Huns, Hua Mulan, the eldest daughter of an honored warrior, steps in to take the place of her ailing father. She is spirited, determined and quick on her feet. Disguised as a man by the name of Hua Jun, she is tested every step of the way and must harness her innermost strength and embrace her true potential.",
      "release_date": "2020-09-10"
    },
    {
      "popularity": 1913.461,
      "vote_count": 87,
      "video": false,
      "poster_path": "\/9Rj8l6gElLpRL7Kj17iZhrT5Zuw.jpg",
      "id": 734309,
      "adult": false,
      "backdrop_path": "\/7fvdg211A2L0mHddvzyArRuRalp.jpg",
      "original_language": "en",
      "original_title": "Santana",
      "genre_ids": [
        28
      ],
      "title": "Santana",
      "vote_average": 5.7,
      "overview": "Two brothers — one a narcotics agent and the other a general — finally discover the identity of the drug lord who murdered their parents decades ago. They may kill each other before capturing the bad guys.",
      "release_date": "2020-08-28"
    },
    {
      "popularity": 1534.087,
      "vote_count": 75,
      "video": false,
      "poster_path": "\/ugZW8ocsrfgI95pnQ7wrmKDxIe.jpg",
      "id": 724989,
      "adult": false,
      "backdrop_path": "\/86L8wqGMDbwURPni2t7FQ0nDjsH.jpg",
      "original_language": "en",
      "original_title": "Hard Kill",
      "genre_ids": [
        28,
        53
      ],
      "title": "Hard Kill",
      "vote_average": 5.1,
      "overview": "The work of billionaire tech CEO Donovan Chalmers is so valuable that he hires mercenaries to protect it, and a terrorist group kidnaps his daughter just to get it.",
      "release_date": "2020-08-25"
    },
    {
      "popularity": 1401.3,
      "vote_count": 233,
      "video": false,
      "poster_path": "\/uOw5JD8IlD546feZ6oxbIjvN66P.jpg",
      "id": 718444,
      "adult": false,
      "backdrop_path": "\/x4UkhIQuHIJyeeOTdcbZ3t3gBSa.jpg",
      "original_language": "en",
      "original_title": "Rogue",
      "genre_ids": [
        28
      ],
      "title": "Rogue",
      "vote_average": 5.9,
      "overview": "Battle-hardened O’Hara leads a lively mercenary team of soldiers on a daring mission: rescue hostages from their captors in remote Africa. But as the mission goes awry and the team is stranded, O’Hara’s squad must face a bloody, brutal encounter with a gang of rebels.",
      "release_date": "2020-08-20"
    },
    {
      "popularity": 1292.61,
      "vote_count": 158,
      "video": false,
      "poster_path": "\/sMO1v5TUf8GOJHbJieDXsgWT2Ud.jpg",
      "id": 438396,
      "adult": false,
      "backdrop_path": "\/qGZe9qTuydxyJYQ60XDtEckzLR8.jpg",
      "original_language": "es",
      "original_title": "Orígenes secretos",
      "genre_ids": [
        18,
        53
      ],
      "title": "Unknown Origins",
      "vote_average": 6.2,
      "overview": "In Madrid, Spain, a mysterious serial killer ruthlessly murders his victims by recreating the first appearance of several comic book superheroes. Cosme, a veteran police inspector who is about to retire, works on the case along with the tormented inspector David Valentín and his own son Jorge Elías, a nerdy young man who owns a comic book store.",
      "release_date": "2020-08-28"
    },
    {
      "popularity": 1073.433,
      "vote_count": 476,
      "video": false,
      "poster_path": "\/sy6DvAu72kjoseZEjocnm2ZZ09i.jpg",
      "id": 581392,
      "adult": false,
      "backdrop_path": "\/gEjNlhZhyHeto6Fy5wWy5Uk3A9D.jpg",
      "original_language": "ko",
      "original_title": "반도",
      "genre_ids": [
        28,
        27,
        53
      ],
      "title": "Peninsula",
      "vote_average": 7.1,
      "overview": "A soldier and his team battle hordes of post-apocalyptic zombies in the wastelands of the Korean Peninsula.",
      "release_date": "2020-07-15"
    },
    {
      "popularity": 1038.34,
      "vote_count": 1262,
      "video": false,
      "poster_path": "\/TnOeov4w0sTtV2gqICqIxVi74V.jpg",
      "id": 605116,
      "adult": false,
      "backdrop_path": "\/qVygtf2vU15L2yKS4Ke44U4oMdD.jpg",
      "original_language": "en",
      "original_title": "Project Power",
      "genre_ids": [
        28,
        80,
        878
      ],
      "title": "Project Power",
      "vote_average": 6.7,
      "overview": "An ex-soldier, a teen and a cop collide in New Orleans as they hunt for the source behind a dangerous new pill that grants users temporary superpowers.",
      "release_date": "2020-08-14"
    },
    {
      "popularity": 1002.385,
      "vote_count": 86,
      "video": false,
      "poster_path": "\/i4kPwXPlM1iy8Jf3S1uuLuwqQAV.jpg",
      "id": 721452,
      "adult": false,
      "backdrop_path": "\/riDrpqQtZpXGeiJdlmfcwwPH7nN.jpg",
      "original_language": "en",
      "original_title": "One Night in Bangkok",
      "genre_ids": [
        28,
        53
      ],
      "title": "One Night in Bangkok",
      "vote_average": 7.2,
      "overview": "A hit man named Kai flies into Bangkok, gets a gun, and orders a cab. He offers a professional female driver big money to be his all-night driver. But when she realizes Kai is committing brutal murders at each stop, it's too late to walk away. Meanwhile, an offbeat police detective races to decode the string of slayings before more blood is spilled.",
      "release_date": "2020-08-25"
    },
    {
      "popularity": 687.045,
      "vote_count": 88,
      "video": false,
      "poster_path": "\/eDnHgozW8vfOaLHzfpHluf1GZCW.jpg",
      "id": 606234,
      "adult": false,
      "backdrop_path": "\/u9YEh2xVAPVTKoaMNlB5tH6pXkm.jpg",
      "original_language": "en",
      "original_title": "Archive",
      "genre_ids": [
        878
      ],
      "title": "Archive",
      "vote_average": 5.9,
      "overview": "2038: George Almore is working on a true human-equivalent AI, and his latest prototype is almost ready. This sensitive phase is also the riskiest as he has a goal that must be hidden at all costs—being reunited with his dead wife.",
      "release_date": "2020-08-13"
    },
    {
      "popularity": 670.668,
      "vote_count": 296,
      "video": false,
      "poster_path": "\/tBhlPrHPRxxAkDVWGVS6lB9yKD5.jpg",
      "id": 539885,
      "adult": false,
      "backdrop_path": "\/hP1BYEj0uukHcYyKPxaRjI4GBOe.jpg",
      "original_language": "en",
      "original_title": "Ava",
      "genre_ids": [
        28,
        80,
        18,
        53
      ],
      "title": "Ava",
      "vote_average": 6,
      "overview": "A black ops assassin is forced to fight for her own survival after a job goes dangerously wrong.",
      "release_date": "2020-08-06"
    },
    {
      "popularity": 670.272,
      "vote_count": 11,
      "video": false,
      "poster_path": "\/dKSN0oZCUSNcEd39MnySLYmpUiJ.jpg",
      "id": 735110,
      "adult": false,
      "backdrop_path": "\/aahbYclKYfms6Utm5YHQOywsj9N.jpg",
      "original_language": "es",
      "original_title": "Fuego negro",
      "genre_ids": [
        28,
        27,
        9648,
        53
      ],
      "title": "Dark Forces",
      "vote_average": 5.3,
      "overview": "In search of his sister, a renegade criminal seeks answers at a sordid hotel where he encounters a sinister guest and romances a mysterious waitress.",
      "release_date": "2020-08-21"
    },
    {
      "popularity": 664.963,
      "vote_count": 92,
      "video": false,
      "poster_path": "\/sDi6wKgECUjDug2gn4uODSqZ3yC.jpg",
      "id": 632618,
      "adult": false,
      "backdrop_path": "\/cVdYaAQmd5DZNdo0KFJruz7JpUs.jpg",
      "original_language": "es",
      "original_title": "Crímenes de familia",
      "genre_ids": [
        80,
        18,
        53
      ],
      "title": "The Crimes That Bind",
      "vote_average": 6.7,
      "overview": "When her son is accused of raping and trying to murder his ex-wife, Alicia embarks on a journey that will change her life forever.",
      "release_date": "2020-08-20"
    },
    {
      "popularity": 601.307,
      "vote_count": 73,
      "video": false,
      "poster_path": "\/afOa3CpPffC3uQCH2fhMaO3AYpB.jpg",
      "id": 594328,
      "adult": false,
      "backdrop_path": "\/lkeBhXGJFRlhI7cBWn8LQQAdZqK.jpg",
      "original_language": "en",
      "original_title": "Phineas and Ferb  The Movie Candace Against the Universe",
      "genre_ids": [
        16,
        35,
        10402,
        878,
        10751,
        10770
      ],
      "title": "Phineas and Ferb  The Movie Candace Against the Universe",
      "vote_average": 7,
      "overview": "Phineas and Ferb travel across the galaxy to rescue their older sister Candace, who has been abducted by aliens and taken to a utopia in a far-off planet, free of her pesky little brothers.",
      "release_date": "2020-08-28"
    },
    {
      "popularity": 542.119,
      "vote_count": 325,
      "video": false,
      "poster_path": "\/kiX7UYfOpYrMFSAGbI6j1pFkLzQ.jpg",
      "id": 613504,
      "adult": false,
      "backdrop_path": "\/r5srC0cqU36n38azFnCyReEksiR.jpg",
      "original_language": "en",
      "original_title": "After We Collided",
      "genre_ids": [
        18,
        10749
      ],
      "title": "After We Collided",
      "vote_average": 6.8,
      "overview": "Tessa finds herself struggling with her complicated relationship with Hardin; she faces a dilemma that could change their lives forever.",
      "release_date": "2020-09-02"
    },
    {
      "popularity": 539.662,
      "vote_count": 2031,
      "video": false,
      "poster_path": "\/cjr4NWURcVN3gW5FlHeabgBHLrY.jpg",
      "id": 547016,
      "adult": false,
      "backdrop_path": "\/m0ObOaJBerZ3Unc74l471ar8Iiy.jpg",
      "original_language": "en",
      "original_title": "The Old Guard",
      "genre_ids": [
        28,
        14
      ],
      "title": "The Old Guard",
      "vote_average": 7.3,
      "overview": "Four undying warriors who've secretly protected humanity for centuries become targeted for their mysterious powers just as they discover a new immortal.",
      "release_date": "2020-07-10"
    },
    {
      "popularity": 524.929,
      "vote_count": 134,
      "video": false,
      "poster_path": "\/3eg0kGC2Xh0vhydJHO37Sp4cmMt.jpg",
      "id": 531499,
      "adult": false,
      "backdrop_path": "\/zogWnCSztU8xvabaepQnAwsOtOt.jpg",
      "original_language": "en",
      "original_title": "The Tax Collector",
      "genre_ids": [
        28,
        80,
        18
      ],
      "title": "The Tax Collector",
      "vote_average": 6.1,
      "overview": "David Cuevas is a family man who works as a gangland tax collector for high ranking Los Angeles gang members. He makes collections across the city with his partner Creeper making sure people pay up or will see retaliation. An old threat returns to Los Angeles that puts everything David loves in harm’s way.",
      "release_date": "2020-08-07"
    },
    {
      "popularity": 520.573,
      "vote_count": 78,
      "video": false,
      "poster_path": "\/bhNHCeJDFDaB00A46AoCw2mggdE.jpg",
      "id": 601165,
      "adult": false,
      "backdrop_path": "\/nxxODhq9I05Ze9uLONGvfDrzaUO.jpg",
      "original_language": "en",
      "original_title": "Legacy of Lies",
      "genre_ids": [
        28,
        53
      ],
      "title": "Legacy of Lies",
      "vote_average": 6,
      "overview": "An ex-MI6 agent is thrown back into the world of espionage and high stakes to uncover the shocking truth about operations conducted by unknown secret services.",
      "release_date": "2020-08-06"
    },
    {
      "popularity": 507.976,
      "vote_count": 112,
      "video": false,
      "poster_path": "\/lv3RonWge4GlC9ymNzC0oWpFCfv.jpg",
      "id": 611395,
      "adult": false,
      "backdrop_path": "\/qXACJOuyklS0BpvO8ALLkkrsv7W.jpg",
      "original_language": "zh",
      "original_title": "征途",
      "genre_ids": [
        28,
        12,
        14
      ],
      "title": "Double World",
      "vote_average": 6.8,
      "overview": "Keen to bring honor to his clan, young villager Dong Yilong embarks on a perilous journey to compete in a tournament that selects warriors for battle.",
      "release_date": "2020-07-24"
    },
    {
      "popularity": 469.901,
      "vote_count": 50,
      "video": false,
      "poster_path": "\/feFKFloS6txWVTn3dLpMjelXFTD.jpg",
      "id": 737802,
      "adult": false,
      "backdrop_path": "\/hSAvrRm2FvteOhodsn0uaUS38T2.jpg",
      "original_language": "es",
      "original_title": "Se busca papá",
      "genre_ids": [
        35,
        18,
        10751
      ],
      "title": "Dad Wanted",
      "vote_average": 7.4,
      "overview": "What does a thrill-seeker tween girl do when her mom forbids her to enter a BMX race? Cast an actor with nothing to lose to play her approving dad.",
      "release_date": "2020-09-11"
    }
  ]
}